%YAML 1.1
%TAG !u! tag:unity3d.com,2011:
--- !u!114 &11400000
MonoBehaviour:
  m_ObjectHideFlags: 0
  m_CorrespondingSourceObject: {fileID: 0}
  m_PrefabInstance: {fileID: 0}
  m_PrefabAsset: {fileID: 0}
  m_GameObject: {fileID: 0}
  m_Enabled: 1
  m_EditorHideFlags: 0
  m_Script: {fileID: 11500000, guid: 952c31849e7f97a43b4768602c4d3135, type: 3}
  m_Name: Animal_S
  m_EditorClassIdentifier: 
  animalName: Roadrunner
  animalSprite: {fileID: 21300000, guid: aca3f41ac830dda458ea0c487c301434, type: 3}
  prefab: {fileID: 1759289212620022745, guid: 2c52920d98c324c4f913025c71269278, type: 3}
  animalIncome: {fileID: 11400000, guid: 64f25a194ed27a2428fb9386a93bec66, type: 2}
  rarity: 0
  type: 0
