%YAML 1.1
%TAG !u! tag:unity3d.com,2011:
--- !u!114 &11400000
MonoBehaviour:
  m_ObjectHideFlags: 0
  m_CorrespondingSourceObject: {fileID: 0}
  m_PrefabInstance: {fileID: 0}
  m_PrefabAsset: {fileID: 0}
  m_GameObject: {fileID: 0}
  m_Enabled: 1
  m_EditorHideFlags: 0
  m_Script: {fileID: 11500000, guid: 952c31849e7f97a43b4768602c4d3135, type: 3}
  m_Name: Animal_WM
  m_EditorClassIdentifier: 
  animalName: Christmas Tree Bird
  animalSprite: {fileID: 21300000, guid: 944fb8758a5676048b0b9054698a3e7f, type: 3}
  prefab: {fileID: 1759289212620022745, guid: 8801e3eca9dbd2346b42fd0dd6fec662, type: 3}
  animalIncome: {fileID: 11400000, guid: e8e1d7a6357f3524cb9101d0de2110f2, type: 2}
  rarity: 1
  type: 3
