%YAML 1.1
%TAG !u! tag:unity3d.com,2011:
--- !u!114 &11400000
MonoBehaviour:
  m_ObjectHideFlags: 0
  m_CorrespondingSourceObject: {fileID: 0}
  m_PrefabInstance: {fileID: 0}
  m_PrefabAsset: {fileID: 0}
  m_GameObject: {fileID: 0}
  m_Enabled: 1
  m_EditorHideFlags: 0
  m_Script: {fileID: 11500000, guid: 952c31849e7f97a43b4768602c4d3135, type: 3}
  m_Name: Animal_WDM
  m_EditorClassIdentifier: 
  animalName: Ice Bird
  animalSprite: {fileID: 21300000, guid: 0816a7bcb0fd7014997b790e9fd24b44, type: 3}
  prefab: {fileID: 1759289212620022745, guid: 6f72e1237aff1f14fa6af505cea000e5, type: 3}
  animalIncome: {fileID: 11400000, guid: 9dd6d0c4dd0bed64b85dd5705be635f8, type: 2}
  rarity: 2
  type: 1
