%YAML 1.1
%TAG !u! tag:unity3d.com,2011:
--- !u!21 &2100000
Material:
  serializedVersion: 6
  m_ObjectHideFlags: 0
  m_CorrespondingSourceObject: {fileID: 0}
  m_PrefabInstance: {fileID: 0}
  m_PrefabAsset: {fileID: 0}
  m_Name: VFX_Mat_BorderGlow
  m_Shader: {fileID: -6465566751694194690, guid: 8d775ab3f1a0bb04fa9c1b9f02094528,
    type: 3}
  m_ShaderKeywords: 
  m_LightmapFlags: 4
  m_EnableInstancingVariants: 0
  m_DoubleSidedGI: 0
  m_CustomRenderQueue: -1
  stringTagMap: {}
  disabledShaderPasses: []
  m_SavedProperties:
    serializedVersion: 3
    m_TexEnvs:
    - Texture2D_D23D9276:
        m_Texture: {fileID: 2800000, guid: a1097a0de2e0dcf49b94e0a9b3f6c760, type: 3}
        m_Scale: {x: 1, y: 1}
        m_Offset: {x: 0, y: 0}
    m_Floats:
    - Vector1_5208F825: 15
    - Vector1_CCB69F96: 1
    m_Colors:
    - Color_C90F208F: {r: 3.4415908, g: 3.4415908, b: 3.4415908, a: 0}
