%YAML 1.1
%TAG !u! tag:unity3d.com,2011:
--- !u!1 &5317235190848833961
GameObject:
  m_ObjectHideFlags: 0
  m_CorrespondingSourceObject: {fileID: 0}
  m_PrefabInstance: {fileID: 0}
  m_PrefabAsset: {fileID: 0}
  serializedVersion: 6
  m_Component:
  - component: {fileID: 5492392840028209799}
  m_Layer: 0
  m_Name: FireBird_1
  m_TagString: Untagged
  m_Icon: {fileID: 0}
  m_NavMeshLayer: 0
  m_StaticEditorFlags: 0
  m_IsActive: 1
--- !u!4 &5492392840028209799
Transform:
  m_ObjectHideFlags: 0
  m_CorrespondingSourceObject: {fileID: 0}
  m_PrefabInstance: {fileID: 0}
  m_PrefabAsset: {fileID: 0}
  m_GameObject: {fileID: 5317235190848833961}
  m_LocalRotation: {x: 0, y: 0, z: 0, w: 1}
  m_LocalPosition: {x: 4.5, y: -2.45, z: 9.3}
  m_LocalScale: {x: 1, y: 1, z: 1}
  m_Children:
  - {fileID: 8790321843873774259}
  m_Father: {fileID: 0}
  m_RootOrder: 0
  m_LocalEulerAnglesHint: {x: 0, y: 0, z: 0}
--- !u!1001 &9112970459444321624
PrefabInstance:
  m_ObjectHideFlags: 0
  serializedVersion: 2
  m_Modification:
    m_TransformParent: {fileID: 5492392840028209799}
    m_Modifications:
    - target: {fileID: -8679921383154817045, guid: 41b6647d83c03d04396eadcaf51e0152,
        type: 3}
      propertyPath: m_LocalPosition.x
      value: 0
      objectReference: {fileID: 0}
    - target: {fileID: -8679921383154817045, guid: 41b6647d83c03d04396eadcaf51e0152,
        type: 3}
      propertyPath: m_LocalPosition.y
      value: 0
      objectReference: {fileID: 0}
    - target: {fileID: -8679921383154817045, guid: 41b6647d83c03d04396eadcaf51e0152,
        type: 3}
      propertyPath: m_LocalPosition.z
      value: 0
      objectReference: {fileID: 0}
    - target: {fileID: -8679921383154817045, guid: 41b6647d83c03d04396eadcaf51e0152,
        type: 3}
      propertyPath: m_LocalRotation.x
      value: 0.7071068
      objectReference: {fileID: 0}
    - target: {fileID: -8679921383154817045, guid: 41b6647d83c03d04396eadcaf51e0152,
        type: 3}
      propertyPath: m_LocalRotation.y
      value: 0
      objectReference: {fileID: 0}
    - target: {fileID: -8679921383154817045, guid: 41b6647d83c03d04396eadcaf51e0152,
        type: 3}
      propertyPath: m_LocalRotation.z
      value: 0
      objectReference: {fileID: 0}
    - target: {fileID: -8679921383154817045, guid: 41b6647d83c03d04396eadcaf51e0152,
        type: 3}
      propertyPath: m_LocalRotation.w
      value: 0.70710677
      objectReference: {fileID: 0}
    - target: {fileID: -8679921383154817045, guid: 41b6647d83c03d04396eadcaf51e0152,
        type: 3}
      propertyPath: m_RootOrder
      value: 0
      objectReference: {fileID: 0}
    - target: {fileID: -8679921383154817045, guid: 41b6647d83c03d04396eadcaf51e0152,
        type: 3}
      propertyPath: m_LocalEulerAnglesHint.x
      value: 90.00001
      objectReference: {fileID: 0}
    - target: {fileID: -8679921383154817045, guid: 41b6647d83c03d04396eadcaf51e0152,
        type: 3}
      propertyPath: m_LocalEulerAnglesHint.y
      value: 0
      objectReference: {fileID: 0}
    - target: {fileID: -8679921383154817045, guid: 41b6647d83c03d04396eadcaf51e0152,
        type: 3}
      propertyPath: m_LocalEulerAnglesHint.z
      value: 0
      objectReference: {fileID: 0}
    - target: {fileID: -8679921383154817045, guid: 41b6647d83c03d04396eadcaf51e0152,
        type: 3}
      propertyPath: m_LocalScale.x
      value: -41.281334
      objectReference: {fileID: 0}
    - target: {fileID: -8679921383154817045, guid: 41b6647d83c03d04396eadcaf51e0152,
        type: 3}
      propertyPath: m_LocalScale.y
      value: -41.281338
      objectReference: {fileID: 0}
    - target: {fileID: -8679921383154817045, guid: 41b6647d83c03d04396eadcaf51e0152,
        type: 3}
      propertyPath: m_LocalScale.z
      value: -41.281334
      objectReference: {fileID: 0}
    - target: {fileID: -7511558181221131132, guid: 41b6647d83c03d04396eadcaf51e0152,
        type: 3}
      propertyPath: m_Materials.Array.data[0]
      value: 
      objectReference: {fileID: 2100000, guid: c3839286860bf064fb2ac1bb5c335a8e, type: 2}
    - target: {fileID: 919132149155446097, guid: 41b6647d83c03d04396eadcaf51e0152,
        type: 3}
      propertyPath: m_Name
      value: bird_forest
      objectReference: {fileID: 0}
    m_RemovedComponents: []
  m_SourcePrefab: {fileID: 100100000, guid: 41b6647d83c03d04396eadcaf51e0152, type: 3}
--- !u!4 &8790321843873774259 stripped
Transform:
  m_CorrespondingSourceObject: {fileID: -8679921383154817045, guid: 41b6647d83c03d04396eadcaf51e0152,
    type: 3}
  m_PrefabInstance: {fileID: 9112970459444321624}
  m_PrefabAsset: {fileID: 0}
