%YAML 1.1
%TAG !u! tag:unity3d.com,2011:
--- !u!1001 &3119008288642293216
PrefabInstance:
  m_ObjectHideFlags: 0
  serializedVersion: 2
  m_Modification:
    m_TransformParent: {fileID: 4750851251009993414}
    m_Modifications:
    - target: {fileID: -8679921383154817045, guid: c3995d604405230459a9dfdcb447102f,
        type: 3}
      propertyPath: m_LocalPosition.x
      value: 0.5
      objectReference: {fileID: 0}
    - target: {fileID: -8679921383154817045, guid: c3995d604405230459a9dfdcb447102f,
        type: 3}
      propertyPath: m_LocalPosition.y
      value: 0
      objectReference: {fileID: 0}
    - target: {fileID: -8679921383154817045, guid: c3995d604405230459a9dfdcb447102f,
        type: 3}
      propertyPath: m_LocalPosition.z
      value: 0.6
      objectReference: {fileID: 0}
    - target: {fileID: -8679921383154817045, guid: c3995d604405230459a9dfdcb447102f,
        type: 3}
      propertyPath: m_LocalRotation.x
      value: -0.2418448
      objectReference: {fileID: 0}
    - target: {fileID: -8679921383154817045, guid: c3995d604405230459a9dfdcb447102f,
        type: 3}
      propertyPath: m_LocalRotation.y
      value: -0.66446304
      objectReference: {fileID: 0}
    - target: {fileID: -8679921383154817045, guid: c3995d604405230459a9dfdcb447102f,
        type: 3}
      propertyPath: m_LocalRotation.z
      value: -0.66446304
      objectReference: {fileID: 0}
    - target: {fileID: -8679921383154817045, guid: c3995d604405230459a9dfdcb447102f,
        type: 3}
      propertyPath: m_LocalRotation.w
      value: 0.2418448
      objectReference: {fileID: 0}
    - target: {fileID: -8679921383154817045, guid: c3995d604405230459a9dfdcb447102f,
        type: 3}
      propertyPath: m_RootOrder
      value: 0
      objectReference: {fileID: 0}
    - target: {fileID: -8679921383154817045, guid: c3995d604405230459a9dfdcb447102f,
        type: 3}
      propertyPath: m_LocalEulerAnglesHint.x
      value: -90
      objectReference: {fileID: 0}
    - target: {fileID: -8679921383154817045, guid: c3995d604405230459a9dfdcb447102f,
        type: 3}
      propertyPath: m_LocalEulerAnglesHint.y
      value: -140
      objectReference: {fileID: 0}
    - target: {fileID: -8679921383154817045, guid: c3995d604405230459a9dfdcb447102f,
        type: 3}
      propertyPath: m_LocalEulerAnglesHint.z
      value: 0
      objectReference: {fileID: 0}
    - target: {fileID: -8679921383154817045, guid: c3995d604405230459a9dfdcb447102f,
        type: 3}
      propertyPath: m_LocalScale.x
      value: 15
      objectReference: {fileID: 0}
    - target: {fileID: -8679921383154817045, guid: c3995d604405230459a9dfdcb447102f,
        type: 3}
      propertyPath: m_LocalScale.y
      value: 15
      objectReference: {fileID: 0}
    - target: {fileID: -8679921383154817045, guid: c3995d604405230459a9dfdcb447102f,
        type: 3}
      propertyPath: m_LocalScale.z
      value: 15
      objectReference: {fileID: 0}
    - target: {fileID: 919132149155446097, guid: c3995d604405230459a9dfdcb447102f,
        type: 3}
      propertyPath: m_Name
      value: Add-on_dark
      objectReference: {fileID: 0}
    m_RemovedComponents: []
  m_SourcePrefab: {fileID: 100100000, guid: c3995d604405230459a9dfdcb447102f, type: 3}
--- !u!1001 &5036271087513445344
PrefabInstance:
  m_ObjectHideFlags: 0
  serializedVersion: 2
  m_Modification:
    m_TransformParent: {fileID: 0}
    m_Modifications:
    - target: {fileID: 291053734222666022, guid: 7eab65e6e6cf0f84c9bc941c5dc08bb0,
        type: 3}
      propertyPath: m_LocalPosition.x
      value: 0
      objectReference: {fileID: 0}
    - target: {fileID: 291053734222666022, guid: 7eab65e6e6cf0f84c9bc941c5dc08bb0,
        type: 3}
      propertyPath: m_LocalPosition.y
      value: 0
      objectReference: {fileID: 0}
    - target: {fileID: 291053734222666022, guid: 7eab65e6e6cf0f84c9bc941c5dc08bb0,
        type: 3}
      propertyPath: m_LocalPosition.z
      value: 0
      objectReference: {fileID: 0}
    - target: {fileID: 291053734222666022, guid: 7eab65e6e6cf0f84c9bc941c5dc08bb0,
        type: 3}
      propertyPath: m_LocalRotation.x
      value: 0
      objectReference: {fileID: 0}
    - target: {fileID: 291053734222666022, guid: 7eab65e6e6cf0f84c9bc941c5dc08bb0,
        type: 3}
      propertyPath: m_LocalRotation.y
      value: 0
      objectReference: {fileID: 0}
    - target: {fileID: 291053734222666022, guid: 7eab65e6e6cf0f84c9bc941c5dc08bb0,
        type: 3}
      propertyPath: m_LocalRotation.z
      value: 0
      objectReference: {fileID: 0}
    - target: {fileID: 291053734222666022, guid: 7eab65e6e6cf0f84c9bc941c5dc08bb0,
        type: 3}
      propertyPath: m_LocalRotation.w
      value: 1
      objectReference: {fileID: 0}
    - target: {fileID: 291053734222666022, guid: 7eab65e6e6cf0f84c9bc941c5dc08bb0,
        type: 3}
      propertyPath: m_RootOrder
      value: 0
      objectReference: {fileID: 0}
    - target: {fileID: 291053734222666022, guid: 7eab65e6e6cf0f84c9bc941c5dc08bb0,
        type: 3}
      propertyPath: m_LocalEulerAnglesHint.x
      value: 0
      objectReference: {fileID: 0}
    - target: {fileID: 291053734222666022, guid: 7eab65e6e6cf0f84c9bc941c5dc08bb0,
        type: 3}
      propertyPath: m_LocalEulerAnglesHint.y
      value: 0
      objectReference: {fileID: 0}
    - target: {fileID: 291053734222666022, guid: 7eab65e6e6cf0f84c9bc941c5dc08bb0,
        type: 3}
      propertyPath: m_LocalEulerAnglesHint.z
      value: 0
      objectReference: {fileID: 0}
    - target: {fileID: 291053734222666022, guid: 7eab65e6e6cf0f84c9bc941c5dc08bb0,
        type: 3}
      propertyPath: m_LocalScale.x
      value: 1.3
      objectReference: {fileID: 0}
    - target: {fileID: 291053734222666022, guid: 7eab65e6e6cf0f84c9bc941c5dc08bb0,
        type: 3}
      propertyPath: m_LocalScale.y
      value: 1.3
      objectReference: {fileID: 0}
    - target: {fileID: 291053734222666022, guid: 7eab65e6e6cf0f84c9bc941c5dc08bb0,
        type: 3}
      propertyPath: m_LocalScale.z
      value: 1.3
      objectReference: {fileID: 0}
    - target: {fileID: 4801489299970160872, guid: 7eab65e6e6cf0f84c9bc941c5dc08bb0,
        type: 3}
      propertyPath: m_Name
      value: Addon_Dark
      objectReference: {fileID: 0}
    m_RemovedComponents: []
  m_SourcePrefab: {fileID: 100100000, guid: 7eab65e6e6cf0f84c9bc941c5dc08bb0, type: 3}
--- !u!4 &4750851251009993414 stripped
Transform:
  m_CorrespondingSourceObject: {fileID: 291053734222666022, guid: 7eab65e6e6cf0f84c9bc941c5dc08bb0,
    type: 3}
  m_PrefabInstance: {fileID: 5036271087513445344}
  m_PrefabAsset: {fileID: 0}
