%YAML 1.1
%TAG !u! tag:unity3d.com,2011:
--- !u!114 &11400000
MonoBehaviour:
  m_ObjectHideFlags: 0
  m_CorrespondingSourceObject: {fileID: 0}
  m_PrefabInstance: {fileID: 0}
  m_PrefabAsset: {fileID: 0}
  m_GameObject: {fileID: 0}
  m_Enabled: 1
  m_EditorHideFlags: 0
  m_Script: {fileID: 11500000, guid: e686d105bac5b3443890d2b37d9b7c7b, type: 3}
  m_Name: Tutorial_Popup
  m_EditorClassIdentifier: 
  tutorialSteps:
    array:
    - id: 0
    - id: 1
    - id: 2
    - id: 3
    - id: 4
    - id: 5
    - id: 6
    - id: 7
  references:
    version: 1
    00000000:
      type: {class: HidePopupStep, ns: , asm: Assembly-CSharp}
      data:
        description: Hide
    00000001:
      type: {class: PopupStep, ns: , asm: Assembly-CSharp}
      data:
        description: Text_1
        text: Hello
    00000002:
      type: {class: WaitClickStep, ns: , asm: Assembly-CSharp}
      data:
        description: Wait for click
    00000003:
      type: {class: PopupStep, ns: , asm: Assembly-CSharp}
      data:
        description: Text_2
        text: I'm still here
    00000004:
      type: {class: WaitClickStep, ns: , asm: Assembly-CSharp}
      data:
        description: Wait for click
    00000005:
      type: {class: HidePopupStep, ns: , asm: Assembly-CSharp}
      data:
        description: Hide
    00000006:
      type: {class: WaitClickStep, ns: , asm: Assembly-CSharp}
      data:
        description: Wait for click
    00000007:
      type: {class: PopupStep, ns: , asm: Assembly-CSharp}
      data:
        description: Text_3
        text: I'm back
