%YAML 1.1
%TAG !u! tag:unity3d.com,2011:
--- !u!114 &11400000
MonoBehaviour:
  m_ObjectHideFlags: 0
  m_CorrespondingSourceObject: {fileID: 0}
  m_PrefabInstance: {fileID: 0}
  m_PrefabAsset: {fileID: 0}
  m_GameObject: {fileID: 0}
  m_Enabled: 1
  m_EditorHideFlags: 0
  m_Script: {fileID: 11500000, guid: e686d105bac5b3443890d2b37d9b7c7b, type: 3}
  m_Name: TutorialData
  m_EditorClassIdentifier: 
  tutorialSteps:
    array:
    - id: 0
    - id: 1
    - id: 2
    - id: 3
    - id: 4
    - id: 5
    - id: 6
    - id: 7
  references:
    version: 1
    00000000:
      type: {class: LockButtonStep, ns: , asm: Assembly-CSharp}
      data:
        interactable: 0
        buttons:
        - button_food
        - button_addon
    00000001:
      type: {class: MoveCameraStep, ns: , asm: Assembly-CSharp}
      data:
        distance: 10
        targetTile:
          islandId: 0
          gridPosition: {x: 1, y: 0}
    00000002:
      type: {class: TutorialHandMoveStep, ns: , asm: Assembly-CSharp}
      data:
        from:
          isWorldSpace: 0
          targetTile:
            islandId: 0
            gridPosition: {x: 0, y: 0}
          targetTag: button_habitat
          offset: {x: 0, y: 0, z: 0}
        to:
          isWorldSpace: 1
          targetTile:
            islandId: 0
            gridPosition: {x: 0, y: 0}
          targetTag: 
          offset: {x: 0, y: 0, z: 0}
        duration: 2
        loop: 1
    00000003:
      type: {class: WaitForPlaceResourceTypeStep, ns: , asm: Assembly-CSharp}
      data:
        targetType:
          _classRef: TileHabitat, Assembly-CSharp
    00000004:
      type: {class: LockButtonStep, ns: , asm: Assembly-CSharp}
      data:
        interactable: 1
        buttons:
        - button_addon
    00000005:
      type: {class: LockButtonStep, ns: , asm: Assembly-CSharp}
      data:
        interactable: 0
        buttons:
        - button_habitat
    00000006:
      type: {class: MoveCameraStep, ns: , asm: Assembly-CSharp}
      data:
        distance: 10
        targetTile:
          islandId: 0
          gridPosition: {x: 0, y: 0}
    00000007:
      type: {class: WaitForPlaceResourceTypeStep, ns: , asm: Assembly-CSharp}
      data:
        targetType:
          _classRef: TileHabitat, Assembly-CSharp
