%YAML 1.1
%TAG !u! tag:unity3d.com,2011:
--- !u!1 &8769026262815820210
GameObject:
  m_ObjectHideFlags: 0
  m_CorrespondingSourceObject: {fileID: 0}
  m_PrefabInstance: {fileID: 0}
  m_PrefabAsset: {fileID: 0}
  serializedVersion: 6
  m_Component:
  - component: {fileID: 8769026262815820209}
  m_Layer: 0
  m_Name: Avocado
  m_TagString: Untagged
  m_Icon: {fileID: 0}
  m_NavMeshLayer: 0
  m_StaticEditorFlags: 0
  m_IsActive: 1
--- !u!4 &8769026262815820209
Transform:
  m_ObjectHideFlags: 0
  m_CorrespondingSourceObject: {fileID: 0}
  m_PrefabInstance: {fileID: 0}
  m_PrefabAsset: {fileID: 0}
  m_GameObject: {fileID: 8769026262815820210}
  m_LocalRotation: {x: 0, y: 0, z: 0, w: 1}
  m_LocalPosition: {x: 0, y: 0.1, z: 0}
  m_LocalScale: {x: 1, y: 1, z: 1}
  m_Children:
  - {fileID: 3207292836169722916}
  m_Father: {fileID: 0}
  m_RootOrder: 0
  m_LocalEulerAnglesHint: {x: 0, y: 0, z: 0}
--- !u!1001 &3100779651395505103
PrefabInstance:
  m_ObjectHideFlags: 0
  serializedVersion: 2
  m_Modification:
    m_TransformParent: {fileID: 8769026262815820209}
    m_Modifications:
    - target: {fileID: -8679921383154817045, guid: d1d3456340866344e83e6bcbb811240a,
        type: 3}
      propertyPath: m_LocalPosition.x
      value: 0
      objectReference: {fileID: 0}
    - target: {fileID: -8679921383154817045, guid: d1d3456340866344e83e6bcbb811240a,
        type: 3}
      propertyPath: m_LocalPosition.y
      value: 0
      objectReference: {fileID: 0}
    - target: {fileID: -8679921383154817045, guid: d1d3456340866344e83e6bcbb811240a,
        type: 3}
      propertyPath: m_LocalPosition.z
      value: 0.0035
      objectReference: {fileID: 0}
    - target: {fileID: -8679921383154817045, guid: d1d3456340866344e83e6bcbb811240a,
        type: 3}
      propertyPath: m_LocalRotation.x
      value: 0
      objectReference: {fileID: 0}
    - target: {fileID: -8679921383154817045, guid: d1d3456340866344e83e6bcbb811240a,
        type: 3}
      propertyPath: m_LocalRotation.y
      value: 0
      objectReference: {fileID: 0}
    - target: {fileID: -8679921383154817045, guid: d1d3456340866344e83e6bcbb811240a,
        type: 3}
      propertyPath: m_LocalRotation.z
      value: 0.976296
      objectReference: {fileID: 0}
    - target: {fileID: -8679921383154817045, guid: d1d3456340866344e83e6bcbb811240a,
        type: 3}
      propertyPath: m_LocalRotation.w
      value: 0.2164397
      objectReference: {fileID: 0}
    - target: {fileID: -8679921383154817045, guid: d1d3456340866344e83e6bcbb811240a,
        type: 3}
      propertyPath: m_RootOrder
      value: 0
      objectReference: {fileID: 0}
    - target: {fileID: -8679921383154817045, guid: d1d3456340866344e83e6bcbb811240a,
        type: 3}
      propertyPath: m_LocalEulerAnglesHint.x
      value: 0
      objectReference: {fileID: 0}
    - target: {fileID: -8679921383154817045, guid: d1d3456340866344e83e6bcbb811240a,
        type: 3}
      propertyPath: m_LocalEulerAnglesHint.y
      value: 0
      objectReference: {fileID: 0}
    - target: {fileID: -8679921383154817045, guid: d1d3456340866344e83e6bcbb811240a,
        type: 3}
      propertyPath: m_LocalEulerAnglesHint.z
      value: 155
      objectReference: {fileID: 0}
    - target: {fileID: -8679921383154817045, guid: d1d3456340866344e83e6bcbb811240a,
        type: 3}
      propertyPath: m_LocalScale.x
      value: 3
      objectReference: {fileID: 0}
    - target: {fileID: -8679921383154817045, guid: d1d3456340866344e83e6bcbb811240a,
        type: 3}
      propertyPath: m_LocalScale.y
      value: 3
      objectReference: {fileID: 0}
    - target: {fileID: -8679921383154817045, guid: d1d3456340866344e83e6bcbb811240a,
        type: 3}
      propertyPath: m_LocalScale.z
      value: 3
      objectReference: {fileID: 0}
    - target: {fileID: -7511558181221131132, guid: d1d3456340866344e83e6bcbb811240a,
        type: 3}
      propertyPath: m_CastShadows
      value: 0
      objectReference: {fileID: 0}
    - target: {fileID: 919132149155446097, guid: d1d3456340866344e83e6bcbb811240a,
        type: 3}
      propertyPath: m_Name
      value: food_2
      objectReference: {fileID: 0}
    - target: {fileID: 919132149155446097, guid: d1d3456340866344e83e6bcbb811240a,
        type: 3}
      propertyPath: m_StaticEditorFlags
      value: 0
      objectReference: {fileID: 0}
    m_RemovedComponents: []
  m_SourcePrefab: {fileID: 100100000, guid: d1d3456340866344e83e6bcbb811240a, type: 3}
--- !u!4 &3207292836169722916 stripped
Transform:
  m_CorrespondingSourceObject: {fileID: -8679921383154817045, guid: d1d3456340866344e83e6bcbb811240a,
    type: 3}
  m_PrefabInstance: {fileID: 3100779651395505103}
  m_PrefabAsset: {fileID: 0}
