%YAML 1.1
%TAG !u! tag:unity3d.com,2011:
--- !u!114 &11400000
MonoBehaviour:
  m_ObjectHideFlags: 0
  m_CorrespondingSourceObject: {fileID: 0}
  m_PrefabInstance: {fileID: 0}
  m_PrefabAsset: {fileID: 0}
  m_GameObject: {fileID: 0}
  m_Enabled: 1
  m_EditorHideFlags: 0
  m_Script: {fileID: 11500000, guid: 1e84149ca4d1e8443aa2cfc5c54ed439, type: 3}
  m_Name: TileMapGeneratorData
  m_EditorClassIdentifier: 
  x: 3
  y: 6
  tileSize: 1
  sizeY: 0
  generationType: 2
  tilePrefab: {fileID: 8855640724526708332, guid: 2a05f2768ef8768499d970757203e6d4,
    type: 3}
