%YAML 1.1
%TAG !u! tag:unity3d.com,2011:
--- !u!114 &11400000
MonoBehaviour:
  m_ObjectHideFlags: 0
  m_CorrespondingSourceObject: {fileID: 0}
  m_PrefabInstance: {fileID: 0}
  m_PrefabAsset: {fileID: 0}
  m_GameObject: {fileID: 0}
  m_Enabled: 1
  m_EditorHideFlags: 0
  m_Script: {fileID: 11500000, guid: 74608d53ef671c94bba6cf842b883c16, type: 3}
  m_Name: Tilemap_1
  m_EditorClassIdentifier: 
  x: 10
  y: 10
  tileSize: 1
  generationType: 2
  tilePrefab: {fileID: 8855640724526708332, guid: 2a05f2768ef8768499d970757203e6d4,
    type: 3}
  gridPositions:
  - {x: 0, y: 0}
  - {x: 1, y: 0}
  - {x: 2, y: 0}
  - {x: 3, y: 0}
  - {x: 4, y: 0}
  - {x: 5, y: 0}
  - {x: 6, y: 0}
  - {x: 7, y: 0}
  - {x: 8, y: 0}
  - {x: 9, y: 0}
  - {x: 0, y: 1}
  - {x: 1, y: 1}
  - {x: 2, y: 1}
  - {x: 3, y: 1}
  - {x: 4, y: 1}
  - {x: 5, y: 1}
  - {x: 6, y: 1}
  - {x: 7, y: 1}
  - {x: 8, y: 1}
  - {x: 9, y: 1}
  - {x: 0, y: 2}
  - {x: 1, y: 2}
  - {x: 2, y: 2}
  - {x: 3, y: 2}
  - {x: 4, y: 2}
  - {x: 5, y: 2}
  - {x: 6, y: 2}
  - {x: 7, y: 2}
  - {x: 8, y: 2}
  - {x: 9, y: 2}
  - {x: 0, y: 3}
  - {x: 1, y: 3}
  - {x: 2, y: 3}
  - {x: 3, y: 3}
  - {x: 4, y: 3}
  - {x: 5, y: 3}
  - {x: 6, y: 3}
  - {x: 7, y: 3}
  - {x: 8, y: 3}
  - {x: 9, y: 3}
  - {x: 0, y: 4}
  - {x: 1, y: 4}
  - {x: 2, y: 4}
  - {x: 3, y: 4}
  - {x: 4, y: 4}
  - {x: 5, y: 4}
  - {x: 6, y: 4}
  - {x: 7, y: 4}
  - {x: 8, y: 4}
  - {x: 9, y: 4}
  - {x: 0, y: 5}
  - {x: 1, y: 5}
  - {x: 2, y: 5}
  - {x: 3, y: 5}
  - {x: 4, y: 5}
  - {x: 5, y: 5}
  - {x: 6, y: 5}
  - {x: 7, y: 5}
  - {x: 8, y: 5}
  - {x: 9, y: 5}
  - {x: 0, y: 6}
  - {x: 1, y: 6}
  - {x: 2, y: 6}
  - {x: 3, y: 6}
  - {x: 4, y: 6}
  - {x: 5, y: 6}
  - {x: 6, y: 6}
  - {x: 7, y: 6}
  - {x: 8, y: 6}
  - {x: 9, y: 6}
  - {x: 0, y: 7}
  - {x: 1, y: 7}
  - {x: 2, y: 7}
  - {x: 3, y: 7}
  - {x: 4, y: 7}
  - {x: 5, y: 7}
  - {x: 6, y: 7}
  - {x: 7, y: 7}
  - {x: 8, y: 7}
  - {x: 9, y: 7}
  - {x: 0, y: 8}
  - {x: 1, y: 8}
  - {x: 2, y: 8}
  - {x: 3, y: 8}
  - {x: 4, y: 8}
  - {x: 5, y: 8}
  - {x: 6, y: 8}
  - {x: 7, y: 8}
  - {x: 8, y: 8}
  - {x: 9, y: 8}
  - {x: 0, y: 9}
  - {x: 1, y: 9}
  - {x: 2, y: 9}
  - {x: 3, y: 9}
  - {x: 4, y: 9}
  - {x: 5, y: 9}
  - {x: 6, y: 9}
  - {x: 7, y: 9}
  - {x: 8, y: 9}
  - {x: 9, y: 9}
