%YAML 1.1
%TAG !u! tag:unity3d.com,2011:
--- !u!114 &11400000
MonoBehaviour:
  m_ObjectHideFlags: 0
  m_CorrespondingSourceObject: {fileID: 0}
  m_PrefabInstance: {fileID: 0}
  m_PrefabAsset: {fileID: 0}
  m_GameObject: {fileID: 0}
  m_Enabled: 1
  m_EditorHideFlags: 0
  m_Script: {fileID: 11500000, guid: 18b1f30f89cc5af4e83b00446363ec35, type: 3}
  m_Name: Shop_Hero
  m_EditorClassIdentifier: 
  key: buy_addon
  tileResource: {fileID: 11400000, guid: 8f26308a17db1d34fbb591185a2d4d00, type: 2}
  sprite: {fileID: 21300000, guid: ea8cc845d8bef3b4593ef51fe3922bd4, type: 3}
