%YAML 1.1
%TAG !u! tag:unity3d.com,2011:
--- !u!21 &2100000
Material:
  serializedVersion: 6
  m_ObjectHideFlags: 0
  m_CorrespondingSourceObject: {fileID: 0}
  m_PrefabInstance: {fileID: 0}
  m_PrefabAsset: {fileID: 0}
  m_Name: VFX_Mat_BubbleFresnel AOE_Poison
  m_Shader: {fileID: -6465566751694194690, guid: 8f3bcc851bf1c8d4ab3bc40d5b2b65a6,
    type: 3}
  m_ShaderKeywords: 
  m_LightmapFlags: 4
  m_EnableInstancingVariants: 0
  m_DoubleSidedGI: 0
  m_CustomRenderQueue: -1
  stringTagMap: {}
  disabledShaderPasses: []
  m_SavedProperties:
    serializedVersion: 3
    m_TexEnvs: []
    m_Floats:
    - Vector1_C13AFACA: 0.93
    m_Colors:
    - Color_1C507A2F: {r: 0.24705882, g: 0, b: 0.020268664, a: 1}
