%YAML 1.1
%TAG !u! tag:unity3d.com,2011:
--- !u!114 &11400000
MonoBehaviour:
  m_ObjectHideFlags: 0
  m_CorrespondingSourceObject: {fileID: 0}
  m_PrefabInstance: {fileID: 0}
  m_PrefabAsset: {fileID: 0}
  m_GameObject: {fileID: 0}
  m_Enabled: 1
  m_EditorHideFlags: 0
  m_Script: {fileID: 11500000, guid: 45dc0f69dac1f2647a30f5c2b46bfcbe, type: 3}
  m_Name: HabitatTile_Forest 1
  m_EditorClassIdentifier: 
  productionData: {fileID: 0}
  incrementalData: {fileID: 11400000, guid: 0a868bde053263b4fb92e4f2cac13781, type: 2}
  productionStep: {fileID: 11400000, guid: 356000b78ff21b44aa9a8534bbdea3d7, type: 2}
  resourceName: Forest
  color: {r: 1, g: 0, b: 0.86742973, a: 1}
  tileMaterial: {fileID: 2100000, guid: 422fcc9b6ded11143b143f4250a08297, type: 2}
  prefab: {fileID: 835656564494911504, guid: b75686c3f337d2d4d9cb4fa1713a9f9e, type: 3}
  isAddOn: 0
  animalDatas:
  - {fileID: 11400000, guid: 323f050f991387f4c8c5d78937245851, type: 2}
  recipes:
  - mustUpgradeAll: 1
    tileHabitats:
    - {fileID: 11400000, guid: 0aa27f4dcf6855648ad19752bb4afe3f, type: 2}
    animalData: {fileID: 11400000, guid: ce66a624a3a550b49883c21dac81d69c, type: 2}
    allowDuplicate: 0
  - mustUpgradeAll: 1
    tileHabitats:
    - {fileID: 11400000, guid: 8f26308a17db1d34fbb591185a2d4d00, type: 2}
    animalData: {fileID: 11400000, guid: a39322581cba74a41bbbfc0a05705b68, type: 2}
    allowDuplicate: 0
  - mustUpgradeAll: 1
    tileHabitats:
    - {fileID: 11400000, guid: 84d6a58072df2ac46a842cb2554e206b, type: 2}
    animalData: {fileID: 11400000, guid: 4b14d8627a702b943ae0452d6b023b46, type: 2}
    allowDuplicate: 0
  - mustUpgradeAll: 1
    tileHabitats:
    - {fileID: 11400000, guid: 84d6a58072df2ac46a842cb2554e206b, type: 2}
    - {fileID: 11400000, guid: 0aa27f4dcf6855648ad19752bb4afe3f, type: 2}
    animalData: {fileID: 11400000, guid: a60029f50d552da4e9f9545d3b389071, type: 2}
    allowDuplicate: 0
  - mustUpgradeAll: 1
    tileHabitats:
    - {fileID: 11400000, guid: 0aa27f4dcf6855648ad19752bb4afe3f, type: 2}
    - {fileID: 11400000, guid: 8f26308a17db1d34fbb591185a2d4d00, type: 2}
    animalData: {fileID: 11400000, guid: 1f008aa1251422d4ebf0897c0988ac47, type: 2}
    allowDuplicate: 0
  - mustUpgradeAll: 1
    tileHabitats:
    - {fileID: 11400000, guid: 8f26308a17db1d34fbb591185a2d4d00, type: 2}
    - {fileID: 11400000, guid: 84d6a58072df2ac46a842cb2554e206b, type: 2}
    animalData: {fileID: 11400000, guid: 8354c47fcd545b2428acfa436180cbec, type: 2}
    allowDuplicate: 0
  - mustUpgradeAll: 1
    tileHabitats:
    - {fileID: 11400000, guid: 0aa27f4dcf6855648ad19752bb4afe3f, type: 2}
    - {fileID: 11400000, guid: 8f26308a17db1d34fbb591185a2d4d00, type: 2}
    - {fileID: 11400000, guid: 84d6a58072df2ac46a842cb2554e206b, type: 2}
    animalData: {fileID: 11400000, guid: 2c73cf77e425959419921261c0592870, type: 2}
    allowDuplicate: 0
