%YAML 1.1
%TAG !u! tag:unity3d.com,2011:
--- !u!114 &11400000
MonoBehaviour:
  m_ObjectHideFlags: 0
  m_CorrespondingSourceObject: {fileID: 0}
  m_PrefabInstance: {fileID: 0}
  m_PrefabAsset: {fileID: 0}
  m_GameObject: {fileID: 0}
  m_Enabled: 1
  m_EditorHideFlags: 0
  m_Script: {fileID: 11500000, guid: 97ff596901db4ee4088587e2536b1355, type: 3}
  m_Name: DefaultEgg
  m_EditorClassIdentifier: 
  animalDatas:
  - array:
    - {fileID: 11400000, guid: 323f050f991387f4c8c5d78937245851, type: 2}
  - array:
    - {fileID: 11400000, guid: 4b14d8627a702b943ae0452d6b023b46, type: 2}
    - {fileID: 11400000, guid: ce66a624a3a550b49883c21dac81d69c, type: 2}
  - array:
    - {fileID: 11400000, guid: a60029f50d552da4e9f9545d3b389071, type: 2}
