%YAML 1.1
%TAG !u! tag:unity3d.com,2011:
--- !u!114 &11400000
MonoBehaviour:
  m_ObjectHideFlags: 0
  m_CorrespondingSourceObject: {fileID: 0}
  m_PrefabInstance: {fileID: 0}
  m_PrefabAsset: {fileID: 0}
  m_GameObject: {fileID: 0}
  m_Enabled: 1
  m_EditorHideFlags: 0
  m_Script: {fileID: 11500000, guid: 97ff596901db4ee4088587e2536b1355, type: 3}
  m_Name: Egg_Sand_Rare_Famous
  m_EditorClassIdentifier: 
  eggSprite: {fileID: 21300000, guid: d600133501fb96342872bea49c1e2f75, type: 3}
  animalDatas:
  - array:
    - {fileID: 11400000, guid: 1c8e5dde94021f74aa2122e0a7d2cba2, type: 2}
  - array:
    - {fileID: 11400000, guid: bf2d841fadee1e74dbcb7f54952e5392, type: 2}
