%YAML 1.1
%TAG !u! tag:unity3d.com,2011:
--- !u!114 &11400000
MonoBehaviour:
  m_ObjectHideFlags: 0
  m_CorrespondingSourceObject: {fileID: 0}
  m_PrefabInstance: {fileID: 0}
  m_PrefabAsset: {fileID: 0}
  m_GameObject: {fileID: 0}
  m_Enabled: 1
  m_EditorHideFlags: 0
  m_Script: {fileID: 11500000, guid: 97ff596901db4ee4088587e2536b1355, type: 3}
  m_Name: Egg_Snow_Common
  m_EditorClassIdentifier: 
  eggSprite: {fileID: 21300000, guid: 7be2dd882ddc97a4e8355f40ee1f89fa, type: 3}
  animalDatas:
  - array:
    - {fileID: 11400000, guid: 1ad013b42cda7b74fa53df0846dbc3d3, type: 2}
