%YAML 1.1
%TAG !u! tag:unity3d.com,2011:
--- !u!114 &11400000
MonoBehaviour:
  m_ObjectHideFlags: 0
  m_CorrespondingSourceObject: {fileID: 0}
  m_PrefabInstance: {fileID: 0}
  m_PrefabAsset: {fileID: 0}
  m_GameObject: {fileID: 0}
  m_Enabled: 1
  m_EditorHideFlags: 0
  m_Script: {fileID: 11500000, guid: 97ff596901db4ee4088587e2536b1355, type: 3}
  m_Name: Egg_Snow_Legendary
  m_EditorClassIdentifier: 
  eggSprite: {fileID: 21300000, guid: 7be2dd882ddc97a4e8355f40ee1f89fa, type: 3}
  animalDatas:
  - array:
    - {fileID: 11400000, guid: 1ad013b42cda7b74fa53df0846dbc3d3, type: 2}
  - array:
    - {fileID: 11400000, guid: 4edda51e553a10142819ec7403346de9, type: 2}
    - {fileID: 11400000, guid: ef8d506cb95726549b4555e1c5d7b6c4, type: 2}
    - {fileID: 11400000, guid: da89ec776a81be0428b42f89400fdd08, type: 2}
  - array:
    - {fileID: 11400000, guid: fd893471a42c73244b1902b7ce7acd90, type: 2}
    - {fileID: 11400000, guid: 9a1e8f795a8dc854cb02dba74926d77c, type: 2}
    - {fileID: 11400000, guid: 82c2bd520c2c54c4abda53f0742e80ed, type: 2}
  - array:
    - {fileID: 11400000, guid: 3fef18e2111ed0e4dab0081a68504773, type: 2}
