%YAML 1.1
%TAG !u! tag:unity3d.com,2011:
--- !u!114 &11400000
MonoBehaviour:
  m_ObjectHideFlags: 0
  m_CorrespondingSourceObject: {fileID: 0}
  m_PrefabInstance: {fileID: 0}
  m_PrefabAsset: {fileID: 0}
  m_GameObject: {fileID: 0}
  m_Enabled: 1
  m_EditorHideFlags: 0
  m_Script: {fileID: 11500000, guid: 97ff596901db4ee4088587e2536b1355, type: 3}
  m_Name: Egg_Forest_Epic_Famous_Magic
  m_EditorClassIdentifier: 
  eggSprite: {fileID: 21300000, guid: dba37c7c42e7cf24189f1510ce51ccde, type: 3}
  animalDatas:
  - array:
    - {fileID: 11400000, guid: 323f050f991387f4c8c5d78937245851, type: 2}
  - array:
    - {fileID: 11400000, guid: ce66a624a3a550b49883c21dac81d69c, type: 2}
    - {fileID: 11400000, guid: a39322581cba74a41bbbfc0a05705b68, type: 2}
  - array:
    - {fileID: 11400000, guid: 1f008aa1251422d4ebf0897c0988ac47, type: 2}
