%YAML 1.1
%TAG !u! tag:unity3d.com,2011:
--- !u!21 &2100000
Material:
  serializedVersion: 6
  m_ObjectHideFlags: 0
  m_CorrespondingSourceObject: {fileID: 0}
  m_PrefabInstance: {fileID: 0}
  m_PrefabAsset: {fileID: 0}
  m_Name: Mat_TrailFlow Prism 2
  m_Shader: {fileID: -6465566751694194690, guid: f9e0d912dd56e664485bd7c740a98971,
    type: 3}
  m_ShaderKeywords: 
  m_LightmapFlags: 4
  m_EnableInstancingVariants: 0
  m_DoubleSidedGI: 0
  m_CustomRenderQueue: -1
  stringTagMap: {}
  disabledShaderPasses: []
  m_SavedProperties:
    serializedVersion: 3
    m_TexEnvs:
    - Texture2D_1D2BCAFB:
        m_Texture: {fileID: 2800000, guid: d0758ca9081fb2444b57c0af9578093e, type: 3}
        m_Scale: {x: 1, y: 1}
        m_Offset: {x: 0, y: 0}
    - Texture2D_56D114B6:
        m_Texture: {fileID: 2800000, guid: ad059ce1d555d2f48aa80e8eacff13ef, type: 3}
        m_Scale: {x: 1, y: 1}
        m_Offset: {x: 0, y: 0}
    - Texture2D_AB3AA875:
        m_Texture: {fileID: 2800000, guid: 1aee6542ab3a43e4cb392bc8d20048da, type: 3}
        m_Scale: {x: 1, y: 1}
        m_Offset: {x: 0, y: 0}
    - _Texture2DAsset_36834101_Out_0:
        m_Texture: {fileID: 2800000, guid: b834c89e2c39d184f94d204642e39c0f, type: 3}
        m_Scale: {x: 1, y: 1}
        m_Offset: {x: 0, y: 0}
    - _Texture2DAsset_69ABF2BA_Out_0:
        m_Texture: {fileID: 2800000, guid: b33831ee083d7774fb6288cd77183afb, type: 3}
        m_Scale: {x: 1, y: 1}
        m_Offset: {x: 0, y: 0}
    - _Texture2DAsset_D83223D2_Out_0:
        m_Texture: {fileID: 2800000, guid: c3aefd59652deaa4bb27fbd925457d26, type: 3}
        m_Scale: {x: 1, y: 1}
        m_Offset: {x: 0, y: 0}
    m_Floats:
    - Vector1_2FFEEE81: 0.29
    - Vector1_45ACE1B3: 1
    - Vector1_581773B4: -8.18
    - Vector1_6EC2C7C2: 2.76
    - Vector1_8A998948: 10.9
    - Vector1_95F254D8: 0.584
    - Vector1_C28F9825: 0.347
    - Vector1_C7D9CD09: 0.6
    - Vector1_EC4F28D5: 0.5
    m_Colors:
    - Color_78292F83: {r: 0, g: 0.5254902, b: 0.3373929, a: 0}
    - Color_F7F8F8CF: {r: 0, g: 0.07985763, b: 0.8027793, a: 0}
    - Vector2_272DC957: {r: 0.58, g: 0, b: 0, a: 0}
    - Vector2_2C240B41: {r: 1, g: 1, b: 0, a: 0}
    - Vector2_B82A8D69: {r: -3.24, g: 2.03, b: -2.04, a: 0}
    - Vector2_C289AC0B: {r: 1, g: 1, b: 0, a: 0}
    - Vector2_F6E22E43: {r: 1, g: 0, b: 0, a: 0}
