%YAML 1.1
%TAG !u! tag:unity3d.com,2011:
--- !u!21 &2100000
Material:
  serializedVersion: 6
  m_ObjectHideFlags: 0
  m_CorrespondingSourceObject: {fileID: 0}
  m_PrefabInstance: {fileID: 0}
  m_PrefabAsset: {fileID: 0}
  m_Name: Mat_Screenpos Prism
  m_Shader: {fileID: -6465566751694194690, guid: 9039fdcaa26ad8f47b54c4c98cec03cf,
    type: 3}
  m_ShaderKeywords: 
  m_LightmapFlags: 4
  m_EnableInstancingVariants: 0
  m_DoubleSidedGI: 0
  m_CustomRenderQueue: -1
  stringTagMap: {}
  disabledShaderPasses: []
  m_SavedProperties:
    serializedVersion: 3
    m_TexEnvs:
    - Texture2D_980DE55D:
        m_Texture: {fileID: 2800000, guid: 1ba23596fb9ba434fb013dec792ff053, type: 3}
        m_Scale: {x: 1, y: 1}
        m_Offset: {x: 0, y: 0}
    m_Floats:
    - Vector1_619815F8: 1
    - Vector1_A42204A7: 2.3
    m_Colors:
    - Color_97BA0F67: {r: 1, g: 1, b: 1, a: 0}
    - Vector2_D4E2900E: {r: 1, g: 1, b: 0, a: 0}
    - Vector2_DD54322F: {r: 0.5, g: -0.2, b: 0, a: 0}
    - Vector3_3EB25F4C: {r: 0, g: 0, b: 0, a: 0}
