%YAML 1.1
%TAG !u! tag:unity3d.com,2011:
--- !u!21 &2100000
Material:
  serializedVersion: 6
  m_ObjectHideFlags: 0
  m_CorrespondingSourceObject: {fileID: 0}
  m_PrefabInstance: {fileID: 0}
  m_PrefabAsset: {fileID: 0}
  m_Name: Mat_GLab_PBR_Soft
  m_Shader: {fileID: -6465566751694194690, guid: f54b2a8fef906de4ca78670b1cf01d6b,
    type: 3}
  m_ShaderKeywords: 
  m_LightmapFlags: 4
  m_EnableInstancingVariants: 0
  m_DoubleSidedGI: 0
  m_CustomRenderQueue: -1
  stringTagMap: {}
  disabledShaderPasses: []
  m_SavedProperties:
    serializedVersion: 3
    m_TexEnvs:
    - Texture2D_1360D5C0:
        m_Texture: {fileID: 0}
        m_Scale: {x: 1, y: 1}
        m_Offset: {x: 0, y: 0}
    - Texture2D_6817FBD7:
        m_Texture: {fileID: 0}
        m_Scale: {x: 1, y: 1}
        m_Offset: {x: 0, y: 0}
    - Texture2D_8E1896EE:
        m_Texture: {fileID: 0}
        m_Scale: {x: 1, y: 1}
        m_Offset: {x: 0, y: 0}
    - _Texture2DAsset_688B31E1_Out_0:
        m_Texture: {fileID: 2800000, guid: f2f4e4190c032a54ea9ec0227acb38bc, type: 3}
        m_Scale: {x: 1, y: 1}
        m_Offset: {x: 0, y: 0}
    - _Texture2DAsset_7072FDA5_Out_0:
        m_Texture: {fileID: 2800000, guid: f2f4e4190c032a54ea9ec0227acb38bc, type: 3}
        m_Scale: {x: 1, y: 1}
        m_Offset: {x: 0, y: 0}
    - _Texture2DAsset_FD9D0E10_Out_0:
        m_Texture: {fileID: 0}
        m_Scale: {x: 1, y: 1}
        m_Offset: {x: 0, y: 0}
    m_Floats:
    - Vector1_8FE8FF57: 1
    - Vector1_A14DE991: 1
    - Vector1_AB2982B: 1
    m_Colors:
    - Color_15EF7FC7: {r: 0.49019608, g: 0.49019608, b: 0.49019608, a: 0}
    - Color_AAE0BA4E: {r: 0.49019608, g: 0.49019608, b: 0.49019608, a: 0}
    - LightDirection: {r: 0, g: 0.48715797, b: -0.6001412, a: 0}
    - Vector3_737843A: {r: 0.63, g: 0.49, b: 0, a: 0}
    - Vector4_FCD68B60: {r: 0.3, g: 0.3, b: -0.33, a: 0}
