%YAML 1.1
%TAG !u! tag:unity3d.com,2011:
--- !u!21 &2100000
Material:
  serializedVersion: 6
  m_ObjectHideFlags: 0
  m_CorrespondingSourceObject: {fileID: 0}
  m_PrefabInstance: {fileID: 0}
  m_PrefabAsset: {fileID: 0}
  m_Name: Mat_GLab_Unlit_Halftone Light
  m_Shader: {fileID: -6465566751694194690, guid: 9ad0cc013b7564e458c50fd10c623953,
    type: 3}
  m_ShaderKeywords: 
  m_LightmapFlags: 4
  m_EnableInstancingVariants: 0
  m_DoubleSidedGI: 0
  m_CustomRenderQueue: -1
  stringTagMap: {}
  disabledShaderPasses: []
  m_SavedProperties:
    serializedVersion: 3
    m_TexEnvs:
    - Texture2D_FEE74CCE:
        m_Texture: {fileID: 10300, guid: 0000000000000000f000000000000000, type: 0}
        m_Scale: {x: 1, y: 1}
        m_Offset: {x: 0, y: 0}
    - _MainTex:
        m_Texture: {fileID: 2800000, guid: 8429fdd682feb22419d7f82f978084bc, type: 3}
        m_Scale: {x: 1, y: 1}
        m_Offset: {x: 0, y: 0}
    - _MainTex2:
        m_Texture: {fileID: 2800000, guid: b01716e7af98b2648a6eef775ca1a173, type: 3}
        m_Scale: {x: 1, y: 1}
        m_Offset: {x: 0, y: 0}
    - _Texture2DAsset_7072FDA5_Out_0:
        m_Texture: {fileID: 2800000, guid: f2f4e4190c032a54ea9ec0227acb38bc, type: 3}
        m_Scale: {x: 1, y: 1}
        m_Offset: {x: 0, y: 0}
    - _Texture2DAsset_B65D32A4_Out_0:
        m_Texture: {fileID: 2800000, guid: 34559a0f5580f9a418b7368b3253cc35, type: 3}
        m_Scale: {x: 1, y: 1}
        m_Offset: {x: 0, y: 0}
    m_Floats:
    - Vector1_1F2A7D7A: 0.186
    - Vector1_23D2FE87: -3.6
    - Vector1_313E2ADA: 0
    - Vector1_3269A223: 0.427
    - Vector1_3C504A56: 0.36
    - Vector1_5B918522: 0.742
    - Vector1_7A8207D0: 0.591
    - Vector1_8FE8FF57: 1
    - Vector1_A923F69A: 0.66
    - Vector1_A97EE022: 0.603
    m_Colors:
    - Color_15EF7FC7: {r: 0.4901961, g: 0.4901961, b: 0.4901961, a: 0}
    - Color_8D7516DF: {r: 0.29411772, g: 0.99215686, b: 0.8571164, a: 0}
    - Color_AAC25C4A: {r: 0.49047703, g: 0.49771893, b: 0.6226415, a: 0}
    - Color_BC86B389: {r: 0.3329477, g: 0.7279252, b: 0.8113208, a: 0}
    - Vector2_23BD2475: {r: 5, g: 5, b: 0, a: 0}
    - Vector2_2BD5B03E: {r: 25, g: 25, b: 0, a: 0}
