%YAML 1.1
%TAG !u! tag:unity3d.com,2011:
--- !u!114 &11400000
MonoBehaviour:
  m_ObjectHideFlags: 0
  m_CorrespondingSourceObject: {fileID: 0}
  m_PrefabInstance: {fileID: 0}
  m_PrefabAsset: {fileID: 0}
  m_GameObject: {fileID: 0}
  m_Enabled: 1
  m_EditorHideFlags: 0
  m_Script: {fileID: 11500000, guid: 45dc0f69dac1f2647a30f5c2b46bfcbe, type: 3}
  m_Name: HabitatTile_Forest
  m_EditorClassIdentifier: 
  countKey: count_habitat
  levelKey: level_forest
  allowedTile: 0
  buyCost: {fileID: 11400000, guid: bfe1bbe5b3701b04bab4f636fad18d78, type: 2}
  upgradeCost: {fileID: 11400000, guid: 0a868bde053263b4fb92e4f2cac13781, type: 2}
  productionStep: {fileID: 11400000, guid: 356000b78ff21b44aa9a8534bbdea3d7, type: 2}
  resourceSprite: {fileID: 21300000, guid: e861cd5556140a44b955493c81060aef, type: 3}
  resourceName: Forest
  prefab: {fileID: 835656564494911504, guid: b75686c3f337d2d4d9cb4fa1713a9f9e, type: 3}
  spawnParticles: {fileID: 3406832760125992529, guid: 660548ea84564dc4797b6e7139ef8737,
    type: 3}
  spawnParticlesOffsetY: 0.6
  hatchReduceProduction: {fileID: 11400000, guid: 0cfd01fda13f1f749b54a7fd1a993dfd,
    type: 2}
  rarityProduction: {fileID: 11400000, guid: c2378ff2abfc4224d867d296eed8d5cc, type: 2}
  happinessProduction: {fileID: 11400000, guid: e1ba1359065d8a2459bf6286f85020d9,
    type: 2}
  isAddOn: 0
  startEgg: {fileID: 11400000, guid: 157417d0cae74ef4a84bc5e73ae1b380, type: 2}
  recipes:
  - tileHabitats:
    - {fileID: 11400000, guid: 0aa27f4dcf6855648ad19752bb4afe3f, type: 2}
    eggData: {fileID: 11400000, guid: f96cb918eae547c4aaade8c2965835a7, type: 2}
    eggRarity: 1
    canDuplicate: 1
  - tileHabitats:
    - {fileID: 11400000, guid: 8f26308a17db1d34fbb591185a2d4d00, type: 2}
    eggData: {fileID: 11400000, guid: b9216cd492160fc49b95f1d6f4295be8, type: 2}
    eggRarity: 1
    canDuplicate: 1
  - tileHabitats:
    - {fileID: 11400000, guid: 84d6a58072df2ac46a842cb2554e206b, type: 2}
    eggData: {fileID: 11400000, guid: 0338a78e26980db44b77d68e0db23a9d, type: 2}
    eggRarity: 1
    canDuplicate: 1
  - tileHabitats:
    - {fileID: 11400000, guid: 84d6a58072df2ac46a842cb2554e206b, type: 2}
    - {fileID: 11400000, guid: 0aa27f4dcf6855648ad19752bb4afe3f, type: 2}
    eggData: {fileID: 11400000, guid: f02eb3657ae0d174193c91df25cf861c, type: 2}
    eggRarity: 2
    canDuplicate: 0
  - tileHabitats:
    - {fileID: 11400000, guid: 0aa27f4dcf6855648ad19752bb4afe3f, type: 2}
    - {fileID: 11400000, guid: 8f26308a17db1d34fbb591185a2d4d00, type: 2}
    eggData: {fileID: 11400000, guid: 7735765f7a1997d45b75b5764e215b09, type: 2}
    eggRarity: 2
    canDuplicate: 0
  - tileHabitats:
    - {fileID: 11400000, guid: 8f26308a17db1d34fbb591185a2d4d00, type: 2}
    - {fileID: 11400000, guid: 84d6a58072df2ac46a842cb2554e206b, type: 2}
    eggData: {fileID: 11400000, guid: 3496bcc8a0d4a8843a1eac15b1894ed9, type: 2}
    eggRarity: 2
    canDuplicate: 0
  - tileHabitats:
    - {fileID: 11400000, guid: 0aa27f4dcf6855648ad19752bb4afe3f, type: 2}
    - {fileID: 11400000, guid: 8f26308a17db1d34fbb591185a2d4d00, type: 2}
    - {fileID: 11400000, guid: 84d6a58072df2ac46a842cb2554e206b, type: 2}
    eggData: {fileID: 11400000, guid: 005044974d40420489b34f23db3e3687, type: 2}
    eggRarity: 3
    canDuplicate: 0
