%YAML 1.1
%TAG !u! tag:unity3d.com,2011:
--- !u!114 &11400000
MonoBehaviour:
  m_ObjectHideFlags: 0
  m_CorrespondingSourceObject: {fileID: 0}
  m_PrefabInstance: {fileID: 0}
  m_PrefabAsset: {fileID: 0}
  m_GameObject: {fileID: 0}
  m_Enabled: 1
  m_EditorHideFlags: 0
  m_Script: {fileID: 11500000, guid: 77c9e4bfc2893c84ebea3c07e858f233, type: 3}
  m_Name: TileFood_1
  m_EditorClassIdentifier: 
  countKey: count_food_1
  levelKey: level_food_1
  allowedTile: 3
  buyCost: {fileID: 11400000, guid: 7e44d39c58380904a95f71e6a13ea808, type: 2}
  upgradeCost: {fileID: 11400000, guid: 9c65c405771a0864ca34b4b6bb05eb02, type: 2}
  productionStep: {fileID: 11400000, guid: 356000b78ff21b44aa9a8534bbdea3d7, type: 2}
  resourceSprite: {fileID: 21300000, guid: 2f865bd8d8d7bca4388c7c282959d70a, type: 3}
  resourceName: Apples
  prefab: {fileID: 6380593619740545808, guid: b5001cafd8d85d64e8330777f995f59d, type: 3}
  spawnParticles: {fileID: 3406832760125992529, guid: 660548ea84564dc4797b6e7139ef8737,
    type: 3}
  spawnParticlesOffsetY: 0.6
  slotSprite: {fileID: 21300000, guid: 9f5dbe50894f72945834de3754805e65, type: 3}
  foodPrefab: {fileID: 8769026262815820210, guid: f63eec90e3e0abb44943703c3e4343bb,
    type: 3}
  slotCapacity: {fileID: 11400000, guid: 80cb757fe973eff40b317f90171f19b7, type: 2}
  cooldownBonus: {fileID: 11400000, guid: 08d9c0dd28c160043926ea1f840d0c45, type: 2}
  eatBonus: {fileID: 11400000, guid: 43540f055abd8de44ab911a7c702b858, type: 2}
  regrowDuration: 300
  eatDuration: 25
