%YAML 1.1
%TAG !u! tag:unity3d.com,2011:
--- !u!1001 &4785005710995905754
PrefabInstance:
  m_ObjectHideFlags: 0
  serializedVersion: 2
  m_Modification:
    m_TransformParent: {fileID: 0}
    m_Modifications:
    - target: {fileID: 1138248083571772364, guid: 28cfa421124067d418dbdd914339fc32,
        type: 3}
      propertyPath: m_LocalScale.x
      value: 75
      objectReference: {fileID: 0}
    - target: {fileID: 1138248083571772364, guid: 28cfa421124067d418dbdd914339fc32,
        type: 3}
      propertyPath: m_LocalScale.y
      value: 75
      objectReference: {fileID: 0}
    - target: {fileID: 1138248083571772364, guid: 28cfa421124067d418dbdd914339fc32,
        type: 3}
      propertyPath: m_LocalScale.z
      value: 75
      objectReference: {fileID: 0}
    - target: {fileID: 5396370428591023615, guid: 28cfa421124067d418dbdd914339fc32,
        type: 3}
      propertyPath: m_Name
      value: Animal_FH
      objectReference: {fileID: 0}
    - target: {fileID: 7208560102820291495, guid: 28cfa421124067d418dbdd914339fc32,
        type: 3}
      propertyPath: m_LocalPosition.x
      value: 0
      objectReference: {fileID: 0}
    - target: {fileID: 7208560102820291495, guid: 28cfa421124067d418dbdd914339fc32,
        type: 3}
      propertyPath: m_LocalPosition.y
      value: 0
      objectReference: {fileID: 0}
    - target: {fileID: 7208560102820291495, guid: 28cfa421124067d418dbdd914339fc32,
        type: 3}
      propertyPath: m_LocalPosition.z
      value: 0
      objectReference: {fileID: 0}
    - target: {fileID: 7208560102820291495, guid: 28cfa421124067d418dbdd914339fc32,
        type: 3}
      propertyPath: m_LocalRotation.x
      value: 0
      objectReference: {fileID: 0}
    - target: {fileID: 7208560102820291495, guid: 28cfa421124067d418dbdd914339fc32,
        type: 3}
      propertyPath: m_LocalRotation.y
      value: 0
      objectReference: {fileID: 0}
    - target: {fileID: 7208560102820291495, guid: 28cfa421124067d418dbdd914339fc32,
        type: 3}
      propertyPath: m_LocalRotation.z
      value: 0
      objectReference: {fileID: 0}
    - target: {fileID: 7208560102820291495, guid: 28cfa421124067d418dbdd914339fc32,
        type: 3}
      propertyPath: m_LocalRotation.w
      value: 1
      objectReference: {fileID: 0}
    - target: {fileID: 7208560102820291495, guid: 28cfa421124067d418dbdd914339fc32,
        type: 3}
      propertyPath: m_RootOrder
      value: 0
      objectReference: {fileID: 0}
    - target: {fileID: 7208560102820291495, guid: 28cfa421124067d418dbdd914339fc32,
        type: 3}
      propertyPath: m_LocalEulerAnglesHint.x
      value: 0
      objectReference: {fileID: 0}
    - target: {fileID: 7208560102820291495, guid: 28cfa421124067d418dbdd914339fc32,
        type: 3}
      propertyPath: m_LocalEulerAnglesHint.y
      value: 0
      objectReference: {fileID: 0}
    - target: {fileID: 7208560102820291495, guid: 28cfa421124067d418dbdd914339fc32,
        type: 3}
      propertyPath: m_LocalEulerAnglesHint.z
      value: 0
      objectReference: {fileID: 0}
    - target: {fileID: 7208560102820291495, guid: 28cfa421124067d418dbdd914339fc32,
        type: 3}
      propertyPath: m_LocalScale.x
      value: 1.4
      objectReference: {fileID: 0}
    - target: {fileID: 7208560102820291495, guid: 28cfa421124067d418dbdd914339fc32,
        type: 3}
      propertyPath: m_LocalScale.y
      value: 1.4
      objectReference: {fileID: 0}
    - target: {fileID: 7208560102820291495, guid: 28cfa421124067d418dbdd914339fc32,
        type: 3}
      propertyPath: m_LocalScale.z
      value: 1.4
      objectReference: {fileID: 0}
    m_RemovedComponents: []
  m_SourcePrefab: {fileID: 100100000, guid: 28cfa421124067d418dbdd914339fc32, type: 3}
--- !u!4 &5596883408613594902 stripped
Transform:
  m_CorrespondingSourceObject: {fileID: 1138248083571772364, guid: 28cfa421124067d418dbdd914339fc32,
    type: 3}
  m_PrefabInstance: {fileID: 4785005710995905754}
  m_PrefabAsset: {fileID: 0}
--- !u!1001 &7534475050265917564
PrefabInstance:
  m_ObjectHideFlags: 0
  serializedVersion: 2
  m_Modification:
    m_TransformParent: {fileID: 5596883408613594902}
    m_Modifications:
    - target: {fileID: -8679921383154817045, guid: 2520926a776bd06408c434114edc26ff,
        type: 3}
      propertyPath: m_LocalPosition.x
      value: -0
      objectReference: {fileID: 0}
    - target: {fileID: -8679921383154817045, guid: 2520926a776bd06408c434114edc26ff,
        type: 3}
      propertyPath: m_LocalPosition.y
      value: 0
      objectReference: {fileID: 0}
    - target: {fileID: -8679921383154817045, guid: 2520926a776bd06408c434114edc26ff,
        type: 3}
      propertyPath: m_LocalPosition.z
      value: 0
      objectReference: {fileID: 0}
    - target: {fileID: -8679921383154817045, guid: 2520926a776bd06408c434114edc26ff,
        type: 3}
      propertyPath: m_LocalRotation.x
      value: -0.7071068
      objectReference: {fileID: 0}
    - target: {fileID: -8679921383154817045, guid: 2520926a776bd06408c434114edc26ff,
        type: 3}
      propertyPath: m_LocalRotation.y
      value: 0
      objectReference: {fileID: 0}
    - target: {fileID: -8679921383154817045, guid: 2520926a776bd06408c434114edc26ff,
        type: 3}
      propertyPath: m_LocalRotation.z
      value: 0
      objectReference: {fileID: 0}
    - target: {fileID: -8679921383154817045, guid: 2520926a776bd06408c434114edc26ff,
        type: 3}
      propertyPath: m_LocalRotation.w
      value: 0.7071068
      objectReference: {fileID: 0}
    - target: {fileID: -8679921383154817045, guid: 2520926a776bd06408c434114edc26ff,
        type: 3}
      propertyPath: m_RootOrder
      value: 0
      objectReference: {fileID: 0}
    - target: {fileID: -8679921383154817045, guid: 2520926a776bd06408c434114edc26ff,
        type: 3}
      propertyPath: m_LocalEulerAnglesHint.x
      value: -90
      objectReference: {fileID: 0}
    - target: {fileID: -8679921383154817045, guid: 2520926a776bd06408c434114edc26ff,
        type: 3}
      propertyPath: m_LocalEulerAnglesHint.y
      value: 0
      objectReference: {fileID: 0}
    - target: {fileID: -8679921383154817045, guid: 2520926a776bd06408c434114edc26ff,
        type: 3}
      propertyPath: m_LocalEulerAnglesHint.z
      value: 0
      objectReference: {fileID: 0}
    - target: {fileID: -8679921383154817045, guid: 2520926a776bd06408c434114edc26ff,
        type: 3}
      propertyPath: m_LocalScale.x
      value: 1
      objectReference: {fileID: 0}
    - target: {fileID: -8679921383154817045, guid: 2520926a776bd06408c434114edc26ff,
        type: 3}
      propertyPath: m_LocalScale.y
      value: 1
      objectReference: {fileID: 0}
    - target: {fileID: -8679921383154817045, guid: 2520926a776bd06408c434114edc26ff,
        type: 3}
      propertyPath: m_LocalScale.z
      value: 1
      objectReference: {fileID: 0}
    - target: {fileID: -7511558181221131132, guid: 2520926a776bd06408c434114edc26ff,
        type: 3}
      propertyPath: m_Materials.Array.data[0]
      value: 
      objectReference: {fileID: 2100000, guid: 8ae6db44c34bb7b44b0352133493cbc7, type: 2}
    - target: {fileID: 919132149155446097, guid: 2520926a776bd06408c434114edc26ff,
        type: 3}
      propertyPath: m_Name
      value: Animal_F
      objectReference: {fileID: 0}
    m_RemovedComponents: []
  m_SourcePrefab: {fileID: 100100000, guid: 2520926a776bd06408c434114edc26ff, type: 3}
