%YAML 1.1
%TAG !u! tag:unity3d.com,2011:
--- !u!1001 &1941662602453614980
PrefabInstance:
  m_ObjectHideFlags: 0
  serializedVersion: 2
  m_Modification:
    m_TransformParent: {fileID: 5596883408613594902}
    m_Modifications:
    - target: {fileID: -8679921383154817045, guid: a7352af089be9a441bc54620d52ccdb8,
        type: 3}
      propertyPath: m_LocalPosition.x
      value: -0
      objectReference: {fileID: 0}
    - target: {fileID: -8679921383154817045, guid: a7352af089be9a441bc54620d52ccdb8,
        type: 3}
      propertyPath: m_LocalPosition.y
      value: 0
      objectReference: {fileID: 0}
    - target: {fileID: -8679921383154817045, guid: a7352af089be9a441bc54620d52ccdb8,
        type: 3}
      propertyPath: m_LocalPosition.z
      value: 0
      objectReference: {fileID: 0}
    - target: {fileID: -8679921383154817045, guid: a7352af089be9a441bc54620d52ccdb8,
        type: 3}
      propertyPath: m_LocalRotation.x
      value: -0.7071068
      objectReference: {fileID: 0}
    - target: {fileID: -8679921383154817045, guid: a7352af089be9a441bc54620d52ccdb8,
        type: 3}
      propertyPath: m_LocalRotation.y
      value: 0
      objectReference: {fileID: 0}
    - target: {fileID: -8679921383154817045, guid: a7352af089be9a441bc54620d52ccdb8,
        type: 3}
      propertyPath: m_LocalRotation.z
      value: 0
      objectReference: {fileID: 0}
    - target: {fileID: -8679921383154817045, guid: a7352af089be9a441bc54620d52ccdb8,
        type: 3}
      propertyPath: m_LocalRotation.w
      value: 0.7071068
      objectReference: {fileID: 0}
    - target: {fileID: -8679921383154817045, guid: a7352af089be9a441bc54620d52ccdb8,
        type: 3}
      propertyPath: m_RootOrder
      value: 0
      objectReference: {fileID: 0}
    - target: {fileID: -8679921383154817045, guid: a7352af089be9a441bc54620d52ccdb8,
        type: 3}
      propertyPath: m_LocalEulerAnglesHint.x
      value: -90
      objectReference: {fileID: 0}
    - target: {fileID: -8679921383154817045, guid: a7352af089be9a441bc54620d52ccdb8,
        type: 3}
      propertyPath: m_LocalEulerAnglesHint.y
      value: 0
      objectReference: {fileID: 0}
    - target: {fileID: -8679921383154817045, guid: a7352af089be9a441bc54620d52ccdb8,
        type: 3}
      propertyPath: m_LocalEulerAnglesHint.z
      value: 0
      objectReference: {fileID: 0}
    - target: {fileID: -8679921383154817045, guid: a7352af089be9a441bc54620d52ccdb8,
        type: 3}
      propertyPath: m_LocalScale.x
      value: 1
      objectReference: {fileID: 0}
    - target: {fileID: -8679921383154817045, guid: a7352af089be9a441bc54620d52ccdb8,
        type: 3}
      propertyPath: m_LocalScale.y
      value: 1
      objectReference: {fileID: 0}
    - target: {fileID: -8679921383154817045, guid: a7352af089be9a441bc54620d52ccdb8,
        type: 3}
      propertyPath: m_LocalScale.z
      value: 1
      objectReference: {fileID: 0}
    - target: {fileID: -7511558181221131132, guid: a7352af089be9a441bc54620d52ccdb8,
        type: 3}
      propertyPath: m_Materials.Array.data[0]
      value: 
      objectReference: {fileID: 2100000, guid: dbed6a9551820034997a337a809e6945, type: 2}
    - target: {fileID: 919132149155446097, guid: a7352af089be9a441bc54620d52ccdb8,
        type: 3}
      propertyPath: m_Name
      value: Animal_SHD
      objectReference: {fileID: 0}
    m_RemovedComponents: []
  m_SourcePrefab: {fileID: 100100000, guid: a7352af089be9a441bc54620d52ccdb8, type: 3}
--- !u!1001 &4785005710995905754
PrefabInstance:
  m_ObjectHideFlags: 0
  serializedVersion: 2
  m_Modification:
    m_TransformParent: {fileID: 0}
    m_Modifications:
    - target: {fileID: 1138248083571772364, guid: 28cfa421124067d418dbdd914339fc32,
        type: 3}
      propertyPath: m_LocalScale.x
      value: 90
      objectReference: {fileID: 0}
    - target: {fileID: 1138248083571772364, guid: 28cfa421124067d418dbdd914339fc32,
        type: 3}
      propertyPath: m_LocalScale.y
      value: 90
      objectReference: {fileID: 0}
    - target: {fileID: 1138248083571772364, guid: 28cfa421124067d418dbdd914339fc32,
        type: 3}
      propertyPath: m_LocalScale.z
      value: 90
      objectReference: {fileID: 0}
    - target: {fileID: 5396370428591023615, guid: 28cfa421124067d418dbdd914339fc32,
        type: 3}
      propertyPath: m_Name
      value: Animal_SHD
      objectReference: {fileID: 0}
    - target: {fileID: 7199149313432979123, guid: 28cfa421124067d418dbdd914339fc32,
        type: 3}
      propertyPath: m_RootOrder
      value: 1
      objectReference: {fileID: 0}
    - target: {fileID: 7208560102820291495, guid: 28cfa421124067d418dbdd914339fc32,
        type: 3}
      propertyPath: m_LocalPosition.x
      value: 0
      objectReference: {fileID: 0}
    - target: {fileID: 7208560102820291495, guid: 28cfa421124067d418dbdd914339fc32,
        type: 3}
      propertyPath: m_LocalPosition.y
      value: 0
      objectReference: {fileID: 0}
    - target: {fileID: 7208560102820291495, guid: 28cfa421124067d418dbdd914339fc32,
        type: 3}
      propertyPath: m_LocalPosition.z
      value: 0
      objectReference: {fileID: 0}
    - target: {fileID: 7208560102820291495, guid: 28cfa421124067d418dbdd914339fc32,
        type: 3}
      propertyPath: m_LocalRotation.x
      value: 0
      objectReference: {fileID: 0}
    - target: {fileID: 7208560102820291495, guid: 28cfa421124067d418dbdd914339fc32,
        type: 3}
      propertyPath: m_LocalRotation.y
      value: 0
      objectReference: {fileID: 0}
    - target: {fileID: 7208560102820291495, guid: 28cfa421124067d418dbdd914339fc32,
        type: 3}
      propertyPath: m_LocalRotation.z
      value: 0
      objectReference: {fileID: 0}
    - target: {fileID: 7208560102820291495, guid: 28cfa421124067d418dbdd914339fc32,
        type: 3}
      propertyPath: m_LocalRotation.w
      value: 1
      objectReference: {fileID: 0}
    - target: {fileID: 7208560102820291495, guid: 28cfa421124067d418dbdd914339fc32,
        type: 3}
      propertyPath: m_RootOrder
      value: 0
      objectReference: {fileID: 0}
    - target: {fileID: 7208560102820291495, guid: 28cfa421124067d418dbdd914339fc32,
        type: 3}
      propertyPath: m_LocalEulerAnglesHint.x
      value: 0
      objectReference: {fileID: 0}
    - target: {fileID: 7208560102820291495, guid: 28cfa421124067d418dbdd914339fc32,
        type: 3}
      propertyPath: m_LocalEulerAnglesHint.y
      value: 0
      objectReference: {fileID: 0}
    - target: {fileID: 7208560102820291495, guid: 28cfa421124067d418dbdd914339fc32,
        type: 3}
      propertyPath: m_LocalEulerAnglesHint.z
      value: 0
      objectReference: {fileID: 0}
    - target: {fileID: 7208560102820291495, guid: 28cfa421124067d418dbdd914339fc32,
        type: 3}
      propertyPath: m_LocalScale.x
      value: 1.6
      objectReference: {fileID: 0}
    - target: {fileID: 7208560102820291495, guid: 28cfa421124067d418dbdd914339fc32,
        type: 3}
      propertyPath: m_LocalScale.y
      value: 1.6
      objectReference: {fileID: 0}
    - target: {fileID: 7208560102820291495, guid: 28cfa421124067d418dbdd914339fc32,
        type: 3}
      propertyPath: m_LocalScale.z
      value: 1.6
      objectReference: {fileID: 0}
    m_RemovedComponents: []
  m_SourcePrefab: {fileID: 100100000, guid: 28cfa421124067d418dbdd914339fc32, type: 3}
--- !u!4 &5596883408613594902 stripped
Transform:
  m_CorrespondingSourceObject: {fileID: 1138248083571772364, guid: 28cfa421124067d418dbdd914339fc32,
    type: 3}
  m_PrefabInstance: {fileID: 4785005710995905754}
  m_PrefabAsset: {fileID: 0}
