%YAML 1.1
%TAG !u! tag:unity3d.com,2011:
--- !u!114 &11400000
MonoBehaviour:
  m_ObjectHideFlags: 0
  m_CorrespondingSourceObject: {fileID: 0}
  m_PrefabInstance: {fileID: 0}
  m_PrefabAsset: {fileID: 0}
  m_GameObject: {fileID: 0}
  m_Enabled: 1
  m_EditorHideFlags: 0
  m_Script: {fileID: 11500000, guid: 82dc19329876c2f449584c9f7db40fa4, type: 3}
  m_Name: RarityData
  m_EditorClassIdentifier: 
  rarityPercDatas:
  - rarity: 0
    chances:
    - 100
    hatchDuration: 10
    hatchParticleSystem: {fileID: 6045222160691659783, guid: d60bdd50f3744b04ebd73cd2444eee2c,
      type: 3}
    material: {fileID: 2100000, guid: 417d2f008deae3e4d85195dcaff4f2bd, type: 2}
    color: {r: 0.35686275, g: 0.35686275, b: 0.35686275, a: 1}
  - rarity: 1
    chances:
    - 60
    - 40
    hatchDuration: 30
    hatchParticleSystem: {fileID: 6832765216367791341, guid: 2e7e07a76797b1a42b59a28c52d308bc,
      type: 3}
    material: {fileID: 2100000, guid: 82ae37cf450a92e4e94ee80c13b64d58, type: 2}
    color: {r: 0, g: 0.47450984, b: 0.9921569, a: 1}
  - rarity: 2
    chances:
    - 50
    - 30
    - 20
    hatchDuration: 300
    hatchParticleSystem: {fileID: 6876957108631225967, guid: 6dbeaf46a93d4ec4dbc92335de44502e,
      type: 3}
    material: {fileID: 2100000, guid: b4ca42c6e652da74fbc73d6966da46f7, type: 2}
    color: {r: 0.5058824, g: 0, b: 0.6784314, a: 1}
  - rarity: 3
    chances:
    - 40
    - 30
    - 20
    - 10
    hatchDuration: 1800
    hatchParticleSystem: {fileID: 1097845066834082393, guid: 84ff55d98d0d43b48b82adccae5b9862,
      type: 3}
    material: {fileID: 2100000, guid: c31e6cc9af277ba4fbfb5491099c841f, type: 2}
    color: {r: 0.9921569, g: 0.5254902, b: 0, a: 1}
