%YAML 1.1
%TAG !u! tag:unity3d.com,2011:
--- !u!21 &2100000
Material:
  serializedVersion: 6
  m_ObjectHideFlags: 0
  m_CorrespondingSourceObject: {fileID: 0}
  m_PrefabInstance: {fileID: 0}
  m_PrefabAsset: {fileID: 0}
  m_Name: Mat_Shader_Waterfall
  m_Shader: {fileID: -6465566751694194690, guid: e2bc3dc15bc751147bc8a282e7d4e9ec,
    type: 3}
  m_ShaderKeywords: 
  m_LightmapFlags: 4
  m_EnableInstancingVariants: 0
  m_DoubleSidedGI: 0
  m_CustomRenderQueue: -1
  stringTagMap: {}
  disabledShaderPasses: []
  m_SavedProperties:
    serializedVersion: 3
    m_TexEnvs:
    - Texture2D_99B6EBAD:
        m_Texture: {fileID: 2800000, guid: b0f32132f8002c94395e9f5c1df5eba6, type: 3}
        m_Scale: {x: 1, y: 1}
        m_Offset: {x: 0, y: 0}
    - Texture2D_9FB8E2C6:
        m_Texture: {fileID: 2800000, guid: a64fa745b1faf6c4cb4dfbc8f0ccecea, type: 3}
        m_Scale: {x: 1, y: 1}
        m_Offset: {x: 0, y: 0}
    - Texture2D_B224CA18:
        m_Texture: {fileID: 2800000, guid: c4140ab27ab8b6045a08e095767bcede, type: 3}
        m_Scale: {x: 1, y: 1}
        m_Offset: {x: 0, y: 0}
    - _SampleTexture2D_35876534_Texture_1:
        m_Texture: {fileID: 2800000, guid: fb26baeef45667b4cad60e8d331fde95, type: 3}
        m_Scale: {x: 1, y: 1}
        m_Offset: {x: 0, y: 0}
    - _SampleTexture2D_D8A7AF72_Texture_1:
        m_Texture: {fileID: 2800000, guid: b6d59f8f2e8ce154b8c60176f8ddf3c4, type: 3}
        m_Scale: {x: 1, y: 1}
        m_Offset: {x: 0, y: 0}
    - _Texture2DAsset_B9DD7AA6_Out_0:
        m_Texture: {fileID: 2800000, guid: c4140ab27ab8b6045a08e095767bcede, type: 3}
        m_Scale: {x: 1, y: 1}
        m_Offset: {x: 0, y: 0}
    m_Floats:
    - Vector1_10133326: 6.13
    - Vector1_118CC9A7: 0.5
    - Vector1_137343DE: 0.28
    - Vector1_315870CE: 3.1
    - Vector1_3BDA110: 0.75
    - Vector1_4A51B59B: 2.8
    - Vector1_559DBB92: 2
    - Vector1_617C2A04: 0.02
    - Vector1_6A132D15: 0.75
    - Vector1_6F3E41C: 60.3
    - Vector1_70336F80: 0
    - Vector1_70CF9548: 2.51
    - Vector1_8A1CA43D: 0.17
    - Vector1_9422385E: 0.45
    - Vector1_AC8DC180: 0.08
    - Vector1_CFCBDA37: 0.1
    - Vector1_DAD8F99F: 15
    - Vector1_F9B1D255: 1
    m_Colors:
    - Color_16F0C58B: {r: 0.3887505, g: 0.67058825, b: 1, a: 0}
    - Color_5A7E7B8C: {r: 0.09803922, g: 0.5568628, b: 0.52156866, a: 0}
    - Color_C2DCDC67: {r: 0.001957997, g: 0.3647059, b: 1, a: 0}
    - Color_D4000CCA: {r: 0.9056604, g: 0.9056604, b: 0.9056604, a: 0}
    - Vector2_2768D6DB: {r: 0, g: 1.36, b: 0, a: 0}
    - Vector2_2B059667: {r: 1.5, g: 0.5, b: 0, a: 0}
    - Vector2_2EAB1D3F: {r: 0.2, g: 0, b: 0, a: 0}
    - Vector2_7B841544: {r: 1, g: 1, b: 0, a: 0}
    - Vector2_7DC9CD72: {r: 100, g: 100, b: 0, a: 0}
    - Vector2_8EFA6318: {r: -1, g: -1, b: 0, a: 0}
    - Vector2_9395054D: {r: 0, g: 0.6, b: 0, a: 0}
    - Vector2_C0BB3C89: {r: 0, g: 0, b: 0, a: 0}
