%YAML 1.1
%TAG !u! tag:unity3d.com,2011:
--- !u!21 &2100000
Material:
  serializedVersion: 6
  m_ObjectHideFlags: 0
  m_CorrespondingSourceObject: {fileID: 0}
  m_PrefabInstance: {fileID: 0}
  m_PrefabAsset: {fileID: 0}
  m_Name: Mat_Shader_Fire
  m_Shader: {fileID: -6465566751694194690, guid: f64c2925f674c0c4ab77916400ea9a96,
    type: 3}
  m_ShaderKeywords: 
  m_LightmapFlags: 4
  m_EnableInstancingVariants: 0
  m_DoubleSidedGI: 0
  m_CustomRenderQueue: 3005
  stringTagMap: {}
  disabledShaderPasses: []
  m_SavedProperties:
    serializedVersion: 3
    m_TexEnvs:
    - Texture2D_64DA614B:
        m_Texture: {fileID: 2800000, guid: 2e3a1c7cb7c599847a5341bc00876814, type: 3}
        m_Scale: {x: 1, y: 1}
        m_Offset: {x: 0, y: 0}
    m_Floats:
    - Vector1_20738513: 0
    - Vector1_76E17274: 2.29
    - Vector1_86842A2F: 0.1
    m_Colors:
    - Color_3CA2490F: {r: 1, g: 1, b: 0, a: 0}
    - Color_93FD2663: {r: 1, g: 0.4829951, b: 0, a: 0}
    - Color_DA74C7E0: {r: 1024, g: 879.4353, b: 0, a: 0}
