%YAML 1.1
%TAG !u! tag:unity3d.com,2011:
--- !u!21 &2100000
Material:
  serializedVersion: 6
  m_ObjectHideFlags: 0
  m_CorrespondingSourceObject: {fileID: 0}
  m_PrefabInstance: {fileID: 0}
  m_PrefabAsset: {fileID: 0}
  m_Name: Mat_Shader_Water_Principal
  m_Shader: {fileID: -6465566751694194690, guid: 78f61b24132c96a4b8e71a532df5174f,
    type: 3}
  m_ShaderKeywords: 
  m_LightmapFlags: 4
  m_EnableInstancingVariants: 0
  m_DoubleSidedGI: 0
  m_CustomRenderQueue: -1
  stringTagMap: {}
  disabledShaderPasses: []
  m_SavedProperties:
    serializedVersion: 3
    m_TexEnvs:
    - Texture2D_99B6EBAD:
        m_Texture: {fileID: 2800000, guid: b0f32132f8002c94395e9f5c1df5eba6, type: 3}
        m_Scale: {x: 1, y: 1}
        m_Offset: {x: 0, y: 0}
    - Texture2D_9FB8E2C6:
        m_Texture: {fileID: 2800000, guid: 40260e638e11b364e89ae7247ef4ec4d, type: 3}
        m_Scale: {x: 1, y: 1}
        m_Offset: {x: 0, y: 0}
    - _SampleTexture2D_61A11A3_Texture_1:
        m_Texture: {fileID: 2800000, guid: b0f32132f8002c94395e9f5c1df5eba6, type: 3}
        m_Scale: {x: 1, y: 1}
        m_Offset: {x: 0, y: 0}
    - _SampleTexture2D_A8748E6C_Texture_1:
        m_Texture: {fileID: 2800000, guid: b015d2d7deb58a84ab3120dc5ddd4072, type: 3}
        m_Scale: {x: 1, y: 1}
        m_Offset: {x: 0, y: 0}
    - _Texture2DAsset_71326384_Out_0:
        m_Texture: {fileID: 2800000, guid: 7f2bf7f3c6c0810469c0392afa8e17a7, type: 3}
        m_Scale: {x: 1, y: 1}
        m_Offset: {x: 0, y: 0}
    - _Texture2DAsset_960FA4FA_Out_0:
        m_Texture: {fileID: 2800000, guid: 7f2bf7f3c6c0810469c0392afa8e17a7, type: 3}
        m_Scale: {x: 1, y: 1}
        m_Offset: {x: 0, y: 0}
    - _Texture2DAsset_CF601865_Out_0:
        m_Texture: {fileID: 2800000, guid: b0f32132f8002c94395e9f5c1df5eba6, type: 3}
        m_Scale: {x: 1, y: 1}
        m_Offset: {x: 0, y: 0}
    m_Floats:
    - Vector1_118CC9A7: 25
    - Vector1_137343DE: 0.28
    - Vector1_315870CE: 3.1
    - Vector1_3BDA110: 0.75
    - Vector1_3E6D7823: 46.64
    - Vector1_4A51B59B: 2.8
    - Vector1_559DBB92: 1.59
    - Vector1_617C2A04: 0.02
    - Vector1_6F3E41C: 33.05
    - Vector1_70336F80: 0.21
    - Vector1_76C15988: 1
    - Vector1_775716A2: 0.47
    - Vector1_8A1CA43D: 0.17
    - Vector1_AC8DC180: 0.08
    - Vector1_C490B61A: -4.5
    - Vector1_CFCBDA37: 0.1
    - Vector1_DAD8F99F: 15
    - Vector1_F9B1D255: 8
    m_Colors:
    - Color_16F0C58B: {r: 0.23921569, g: 0.67058825, b: 1, a: 0}
    - Color_5A7E7B8C: {r: 0.09714311, g: 0.5566038, b: 0.52202076, a: 1}
    - Color_7AEB29E7: {r: 0.3388933, g: 1, b: 0, a: 0}
    - Color_C2DCDC67: {r: 0, g: 0.3650794, b: 1, a: 1}
    - Color_D4000CCA: {r: 0.9056604, g: 0.9056604, b: 0.9056604, a: 0}
    - Vector2_7B841544: {r: 120, g: 150, b: 0, a: 0}
    - Vector2_7DC9CD72: {r: -0.1, g: 0.005, b: 0, a: 0}
    - Vector2_8EFA6318: {r: -1, g: -1, b: 0, a: 0}
    - Vector2_BDEF7308: {r: -0.1, g: 0, b: 0, a: 0}
    - Vector2_C0BB3C89: {r: -0.15, g: 0.05, b: 0, a: 0}
