%YAML 1.1
%TAG !u! tag:unity3d.com,2011:
--- !u!114 &11400000
MonoBehaviour:
  m_ObjectHideFlags: 0
  m_CorrespondingSourceObject: {fileID: 0}
  m_PrefabInstance: {fileID: 0}
  m_PrefabAsset: {fileID: 0}
  m_GameObject: {fileID: 0}
  m_Enabled: 1
  m_EditorHideFlags: 0
  m_Script: {fileID: 11500000, guid: aa1a1d2f8f771a14ca286ded3eb21d23, type: 3}
  m_Name: Food_cooldown_2
  m_EditorClassIdentifier: 
  productionType: 0
  production: 20
  addValue: 0
  productionArray: []
