%YAML 1.1
%TAG !u! tag:unity3d.com,2011:
--- !u!21 &2100000
Material:
  serializedVersion: 6
  m_ObjectHideFlags: 0
  m_CorrespondingSourceObject: {fileID: 0}
  m_PrefabInstance: {fileID: 0}
  m_PrefabAsset: {fileID: 0}
  m_Name: VFX_Mat_Water
  m_Shader: {fileID: -6465566751694194690, guid: 6d1209911ddff3d4a806b370293633cc,
    type: 3}
  m_ShaderKeywords: 
  m_LightmapFlags: 4
  m_EnableInstancingVariants: 0
  m_DoubleSidedGI: 0
  m_CustomRenderQueue: -1
  stringTagMap: {}
  disabledShaderPasses: []
  m_SavedProperties:
    serializedVersion: 3
    m_TexEnvs: []
    m_Floats:
    - Vector1_5F6DEC7F: 1
    m_Colors:
    - Color_D0407B5D: {r: 0.022523498, g: 0.43695584, b: 0.20271148, a: 0}
    - Color_FF0F9381: {r: 0, g: 0.103970185, b: 0.21698111, a: 0}
